<?xml version="1.0" encoding="UTF-8" standalone="no"?>
<svg
   xmlns:dc="http://purl.org/dc/elements/1.1/"
   xmlns:cc="http://creativecommons.org/ns#"
   xmlns:rdf="http://www.w3.org/1999/02/22-rdf-syntax-ns#"
   xmlns:svg="http://www.w3.org/2000/svg"
   xmlns="http://www.w3.org/2000/svg"
   xmlns:sodipodi="http://sodipodi.sourceforge.net/DTD/sodipodi-0.dtd"
   xmlns:inkscape="http://www.inkscape.org/namespaces/inkscape"
   width="10"
   height="17.857"
   viewBox="0 0 10 17.857"
   version="1.1"
   id="svg3"
   sodipodi:docname="angle-right-solid.svg"
   inkscape:version="0.92.3 (2405546, 2018-03-11)">
  <metadata
     id="metadata9">
    <rdf:RDF>
      <cc:Work
         rdf:about="">
        <dc:format>image/svg+xml</dc:format>
        <dc:type
           rdf:resource="http://purl.org/dc/dcmitype/StillImage" />
      </cc:Work>
    </rdf:RDF>
  </metadata>
  <defs
     id="defs7" />
  <sodipodi:namedview
     pagecolor="#084154"
     bordercolor="#084154"
     borderopacity="1"
     objecttolerance="10"
     gridtolerance="10"
     guidetolerance="10"
     inkscape:pageopacity="0"
     inkscape:pageshadow="2"
     inkscape:window-width="716"
     inkscape:window-height="480"
     id="namedview5"
     showgrid="false"
     inkscape:zoom="13.216105"
     inkscape:cx="5"
     inkscape:cy="8.9285002"
     inkscape:window-x="1155"
     inkscape:window-y="210"
     inkscape:window-maximized="0"
     inkscape:current-layer="svg3" />
  <path
     id="angle-right-solid"
     d="M12.627,4.281l-1.1,1.1,7.833,7.833-7.833,7.833,1.1,1.1,8.381-8.381.524-.548-.524-.548Z"
     transform="translate(-11.531 -4.281)"
     fill="#fff"
     style="fill:#084154" />
</svg>
