<?xml version="1.0" encoding="UTF-8" standalone="no"?>
<svg
   xmlns:dc="http://purl.org/dc/elements/1.1/"
   xmlns:cc="http://creativecommons.org/ns#"
   xmlns:rdf="http://www.w3.org/1999/02/22-rdf-syntax-ns#"
   xmlns:svg="http://www.w3.org/2000/svg"
   xmlns="http://www.w3.org/2000/svg"
   xmlns:sodipodi="http://sodipodi.sourceforge.net/DTD/sodipodi-0.dtd"
   xmlns:inkscape="http://www.inkscape.org/namespaces/inkscape"
   width="30"
   height="24"
   viewBox="0 0 30 24"
   version="1.1"
   id="svg6"
   sodipodi:docname="icon_hamburguer.svg"
   inkscape:version="0.92.3 (2405546, 2018-03-11)">
  <metadata
     id="metadata12">
    <rdf:RDF>
      <cc:Work
         rdf:about="">
        <dc:format>image/svg+xml</dc:format>
        <dc:type
           rdf:resource="http://purl.org/dc/dcmitype/StillImage" />
      </cc:Work>
    </rdf:RDF>
  </metadata>
  <defs
     id="defs10" />
  <sodipodi:namedview
     pagecolor="#ffffff"
     bordercolor="#transparent"
     borderopacity="1"
     objecttolerance="10"
     gridtolerance="10"
     guidetolerance="10"
     inkscape:pageopacity="0"
     inkscape:pageshadow="2"
     inkscape:window-width="716"
     inkscape:window-height="480"
     id="namedview8"
     showgrid="false"
     inkscape:zoom="9.8333333"
     inkscape:cx="15"
     inkscape:cy="12"
     inkscape:window-x="38"
     inkscape:window-y="551"
     inkscape:window-maximized="0"
     inkscape:current-layer="svg6" />
  <g
     id="icon_hamburguer"
     transform="translate(-382 -48)"
     style="fill:#ffffff">
    <rect
       id="Retângulo_2"
       data-name="Retângulo 2"
       width="30"
       height="3"
       rx="1.5"
       transform="translate(382 48)"
       fill="#fff"
       style="fill:#ffffff" />
    <rect
       id="Retângulo_3"
       data-name="Retângulo 3"
       width="30"
       height="3"
       rx="1.5"
       transform="translate(382 58.451)"
       fill="#fff"
       style="fill:#ffffff" />
    <rect
       id="Retângulo_4"
       data-name="Retângulo 4"
       width="22"
       height="3"
       rx="1.5"
       transform="translate(382 69)"
       fill="#fff"
       style="fill:#ffffff" />
  </g>
</svg>
